{
  "images" : [
    {
      "idiom" : "universal",
      "filename" : "tab_ic_current.pdf"
    }
  ],
  "info" : {
    "version" : 1,
    "author" : "xcode"
  },
  "properties" : {
    "template-rendering-intent" : "template"
  }
}